[
    {
        "UserID": "1",
        "Username": "Claudine Neal",
        "Roles": "Admin"
    },
    {
        "UserID": "2",
        "Username": "Sam Neal",
        "Roles": "User"
    },
    {
        "UserID": "2",
        "Username": "Sam Neal",
        "Roles": "User"
    },
    {
        "UserID": "2",
        "Username": "Sam Neal",
        "Roles": "User"
    },
    {
        "UserID": "2",
        "Username": "Sam Neal",
        "Roles": "User"
    },
    {
        "UserID": "2",
        "Username": "Sam Neal",
        "Roles": "User"
    },
    {
        "UserID": "2",
        "Username": "Sam Neal",
        "Roles": "User"
    },
    {
        "UserID": "2",
        "Username": "Sam Neal",
        "Roles": "User"
    },
    {
        "UserID": "2",
        "Username": "Sam Neal",
        "Roles": "User"
    },
    {
        "UserID": "2",
        "Username": "Sam Neal",
        "Roles": "User"
    },
    {
        "UserID": "2",
        "Username": "Sam Neal",
        "Roles": "User"
    },
    {
        "UserID": "2",
        "Username": "Sam Neal",
        "Roles": "User"
    },
    {
        "UserID": "2",
        "Username": "Sam Neal",
        "Roles": "User"
    },
    {
        "UserID": "2",
        "Username": "Sam Neal",
        "Roles": "User"
    },
    {
        "UserID": "2",
        "Username": "Sam Neal",
        "Roles": "User"
    }
]
